{
    "@context": {
        "type": "@type",
        "id": "@id",
        "ngsi-ld": "https://uri.etsi.org/ngsi-ld/",
        "fiware": "https://uri.fiware.org/ns/data-models#",
        "schema": "https://schema.org/",
        "ManufacturingMachine": "fiware:ManufacturingMachine",
        "description": "fiware:description",
        "factory": "fiware:factory",
        "firmwareVersion": "fiware:firmwareVersion",
        "location": "fiware:location",
        "machineModel": "fiware:machineModel",
        "name": "fiware:name",
        "online": "fiware:online",
        "softwareVersion": "fiware:softwareVersion",
        "source": "fiware:source",
        "status": "fiware:status",
        "image_url": "schema:image"
    }
}
